Ghana Analysis
…
 # aggregate data at household-wave level
assetsv4 <- assetsv3 %>%
  group_by(hhid, wave) %>%
  summarise(
    total_value_animals = sum(total_value[category == "animals"], na.rm = TRUE),
    total_value_tools = sum(total_value[category == "tools"], na.rm = TRUE),
    total_value_durable_goods = sum(total_value[category == "durable_goods"], na.rm = TRUE),
    total_asset_value = sum(total_value, na.rm = TRUE),
    .groups = "drop"
  )

 # display the processed data set
print(assetsv4)

# A tibble: 9,357 × 6
   hhid        wave total_value_animals total_value_tools total_value_durable_…¹
   <chr>      <dbl>               <dbl>             <dbl>                  <dbl>
 1 0101001002     1                 250               8                    1500 
 2 0101001002     2                 180              11.5                  9325 
 3 0101001003     1                   0             269                    1614.
 4 0101001003     2                   0             774                   18382 
 5 0101001004     1                1000              48                    2550 
 6 0101001004     2                   0              92                    2413 
 7 0101001009     1                   0               4                     950 
 8 0101001009     2                   0              94                  103311 
 9 0101001010     1                   0               6                    2900 
10 0101001010     2                   0              20                   44945 
# ℹ 9,347 more rows
# ℹ abbreviated name: ¹​total_value_durable_goods
# ℹ 1 more variable: total_asset_value <dbl>
…
